C:\Users\Jannayna\Documents\projeto_pod\POD_Cliente\src\main\java\interfacegrafica\Gerenciador.java
C:\Users\Jannayna\Documents\projeto_pod\POD_Cliente\src\main\java\interfacegrafica\TelaCurso.java
C:\Users\Jannayna\Documents\projeto_pod\POD_Cliente\src\main\java\interfacegrafica\telaProfessor.java
